4 Biến đổi dữ liệu: basic | Giới thiệu ngắn gọn về ngôn ngữ R - Phần 1
…
# group theo game và quarter
kobe %>%
  group_by(game, quarter.n) %>%
  summarise(total.fg = sum(basket.n),
            total.fga = n(),
            total.point = sum(point.made),
            point.per.fga = total.point/total.fga,
            avg.fg = mean(basket.n))

## # A tibble: 22 x 7
## # Groups:   game [5]
##     game quarter.n total.fg total.fga total.point point.per.fga avg.fg
##    <int>     <dbl>    <dbl>     <int>       <dbl>         <dbl>  <dbl>
##  1     1         1        3         9           6         0.667  0.333
##  2     1         2        6         9          12         1.33   0.667
##  3     1         3        6        11          12         1.09   0.545
##  4     1         4        1         5           2         0.4    0.2  
##  5     2         1        1         4           2         0.5    0.25 
##  6     2         2        1         1           3         3      1    
##  7     2         3        5        10          10         1      0.5  
##  8     2         4        2         4           4         1      0.5  
##  9     2         5        1         2           2         1      0.5  
## 10     3         1        7        10          16         1.6    0.7  
## # ... with 12 more rows
…
